  0
SECTION
  2
HEADER
  9
$ACADVER
  1
AC1009
  9
$INSBASE
 10
0.0
 20
0.0
 30
0.0
  9
$EXTMIN
 10
34.612598557523597
 20
-842.63258688326641
 30
-0.0015258207003583
  9
$EXTMAX
 10
4653.9704551358554
 20
1521.541556618437
 30
0.0000000349246037
  9
$LIMMIN
 10
0.0
 20
0.0
  9
$LIMMAX
 10
420.0
 20
297.0
  9
$ORTHOMODE
 70
     0
  9
$REGENMODE
 70
     1
  9
$FILLMODE
 70
     1
  9
$QTEXTMODE
 70
     0
  9
$MIRRTEXT
 70
     0
  9
$DRAGMODE
 70
     2
  9
$LTSCALE
 40
1.0
  9
$OSMODE
 70
     9
  9
$ATTMODE
 70
     1
  9
$TEXTSIZE
 40
2.5
  9
$TRACEWID
 40
1.0
  9
$TEXTSTYLE
  7
STANDARD
  9
$CLAYER
  8
0
  9
$CELTYPE
  6
BYLAYER
  9
$CECOLOR
 62
   256
  9
$DIMSCALE
 40
1.0
  9
$DIMASZ
 40
2.5
  9
$DIMEXO
 40
0.625
  9
$DIMDLI
 40
3.75
  9
$DIMRND
 40
0.0
  9
$DIMDLE
 40
0.0
  9
$DIMEXE
 40
1.25
  9
$DIMTP
 40
0.0
  9
$DIMTM
 40
0.0
  9
$DIMTXT
 40
2.5
  9
$DIMCEN
 40
2.5
  9
$DIMTSZ
 40
0.0
  9
$DIMTOL
 70
     0
  9
$DIMLIM
 70
     0
  9
$DIMTIH
 70
     0
  9
$DIMTOH
 70
     0
  9
$DIMSE1
 70
     0
  9
$DIMSE2
 70
     0
  9
$DIMTAD
 70
     1
  9
$DIMZIN
 70
     8
  9
$DIMBLK
  1

  9
$DIMASO
 70
     1
  9
$DIMSHO
 70
     1
  9
$DIMPOST
  1

  9
$DIMAPOST
  1

  9
$DIMALT
 70
     0
  9
$DIMALTD
 70
     3
  9
$DIMALTF
 40
0.03937007874016
  9
$DIMLFAC
 40
1.0
  9
$DIMTOFL
 70
     1
  9
$DIMTVP
 40
0.0
  9
$DIMTIX
 70
     0
  9
$DIMSOXD
 70
     0
  9
$DIMSAH
 70
     0
  9
$DIMBLK1
  1

  9
$DIMBLK2
  1

  9
$DIMSTYLE
  2
ISO-25
  9
$DIMCLRD
 70
     0
  9
$DIMCLRE
 70
     0
  9
$DIMCLRT
 70
     0
  9
$DIMTFAC
 40
1.0
  9
$DIMGAP
 40
0.625
  9
$LUNITS
 70
     2
  9
$LUPREC
 70
     4
  9
$SKETCHINC
 40
1.0
  9
$FILLETRAD
 40
0.0
  9
$AUNITS
 70
     0
  9
$AUPREC
 70
     0
  9
$MENU
  1
.
  9
$ELEVATION
 40
0.0
  9
$PELEVATION
 40
0.0
  9
$THICKNESS
 40
0.0
  9
$LIMCHECK
 70
     0
  9
$BLIPMODE
 70
     0
  9
$CHAMFERA
 40
0.0
  9
$CHAMFERB
 40
0.0
  9
$SKPOLY
 70
     0
  9
$TDCREATE
 40
2455835.4806590509
  9
$TDUPDATE
 40
2455835.5974014932
  9
$TDINDWG
 40
0.1167440741
  9
$TDUSRTIMER
 40
0.1167431713
  9
$USRTIMER
 70
     1
  9
$ANGBASE
 50
0.0
  9
$ANGDIR
 70
     0
  9
$PDMODE
 70
     0
  9
$PDSIZE
 40
0.0
  9
$PLINEWID
 40
0.0
  9
$COORDS
 70
     0
  9
$SPLFRAME
 70
     0
  9
$SPLINETYPE
 70
     6
  9
$SPLINESEGS
 70
     8
  9
$ATTDIA
 70
     0
  9
$ATTREQ
 70
     1
  9
$HANDLING
 70
     1
  9
$HANDSEED
  5
20E
  9
$SURFTAB1
 70
     6
  9
$SURFTAB2
 70
     6
  9
$SURFTYPE
 70
     6
  9
$SURFU
 70
     6
  9
$SURFV
 70
     6
  9
$UCSNAME
  2

  9
$UCSORG
 10
0.0
 20
0.0
 30
0.0
  9
$UCSXDIR
 10
1.0
 20
0.0
 30
0.0
  9
$UCSYDIR
 10
0.0
 20
1.0
 30
0.0
  9
$PUCSNAME
  2

  9
$PUCSORG
 10
0.0
 20
0.0
 30
0.0
  9
$PUCSXDIR
 10
1.0
 20
0.0
 30
0.0
  9
$PUCSYDIR
 10
0.0
 20
1.0
 30
0.0
  9
$USERI1
 70
     0
  9
$USERI2
 70
     0
  9
$USERI3
 70
     0
  9
$USERI4
 70
     0
  9
$USERI5
 70
     0
  9
$USERR1
 40
0.0
  9
$USERR2
 40
0.0
  9
$USERR3
 40
0.0
  9
$USERR4
 40
0.0
  9
$USERR5
 40
0.0
  9
$WORLDVIEW
 70
     1
  9
$SHADEDGE
 70
     3
  9
$SHADEDIF
 70
    70
  9
$TILEMODE
 70
     1
  9
$MAXACTVP
 70
    64
  9
$PLIMCHECK
 70
     0
  9
$PEXTMIN
 10
0.0
 20
0.0
 30
0.0
  9
$PEXTMAX
 10
0.0
 20
0.0
 30
0.0
  9
$PLIMMIN
 10
0.0
 20
0.0
  9
$PLIMMAX
 10
12.0
 20
9.0
  9
$UNITMODE
 70
     0
  9
$VISRETAIN
 70
     1
  9
$PLINEGEN
 70
     0
  9
$PSLTSCALE
 70
     1
  0
ENDSEC
  0
SECTION
  2
TABLES
  0
TABLE
  2
VPORT
 70
     1
  0
VPORT
  2
*ACTIVE
 70
     0
 10
0.0
 20
0.0
 11
1.0
 21
1.0
 12
2358.8517476048278
 22
13.24281766392096
 13
0.0
 23
0.0
 14
10.0
 24
10.0
 15
10.0
 25
10.0
 16
0.0
 26
0.0
 36
1.0
 17
0.0
 27
0.0
 37
0.0
 40
4709.376561858181
 41
1.57601977750309
 42
50.0
 43
0.0
 44
0.0
 50
0.0
 51
0.0
 71
     0
 72
  1000
 73
     1
 74
     3
 75
     0
 76
     0
 77
     0
 78
     0
  0
ENDTAB
  0
TABLE
  2
LTYPE
 70
     2
  0
LTYPE
  2
CONTINUOUS
 70
     0
  3
Solid line
 72
    65
 73
     0
 40
0.0
  0
ENDTAB
  0
TABLE
  2
LAYER
 70
     1
  0
LAYER
  2
0
 70
     0
 62
     7
  6
CONTINUOUS
  0
ENDTAB
  0
TABLE
  2
STYLE
 70
     2
  0
STYLE
  2
STANDARD
 70
     0
 40
0.0
 41
1.0
 50
0.0
 71
     0
 42
2.5
  3
txt
  4

  0
STYLE
  2
ANNOTATIVE
 70
     0
 40
0.0
 41
1.0
 50
0.0
 71
     0
 42
2.5
  3
txt.shx
  4

  0
ENDTAB
  0
TABLE
  2
VIEW
 70
     0
  0
ENDTAB
  0
TABLE
  2
UCS
 70
     0
  0
ENDTAB
  0
TABLE
  2
APPID
 70
     9
  0
APPID
  2
ACAD
 70
     0
  0
APPID
  2
ACAD_PSEXT
 70
     0
  0
APPID
  2
ACADANNOPO
 70
     0
  0
APPID
  2
ACADANNOTATIVE
 70
     0
  0
APPID
  2
ACAD_DSTYLE_DIMJAG
 70
     0
  0
APPID
  2
ACAD_DSTYLE_DIMTALN
 70
     0
  0
APPID
  2
ACAD_MLEADERVER
 70
     0
  0
APPID
  2
ACAD_EXEMPT_FROM_CAD_STANDARDS
 70
     0
  0
APPID
  2
CONTENTBLOCKICON
 70
     0
  0
ENDTAB
  0
TABLE
  2
DIMSTYLE
 70
     3
  0
DIMSTYLE
  2
ISO-25
 70
     0
  3

  4

  5

  6

  7

 40
1.0
 41
2.5
 42
0.625
 43
3.75
 44
1.25
 45
0.0
 46
0.0
 47
0.0
 48
0.0
140
2.5
141
2.5
142
0.0
143
0.03937007874016
144
1.0
145
0.0
146
1.0
147
0.625
 71
     0
 72
     0
 73
     0
 74
     0
 75
     0
 76
     0
 77
     1
 78
     8
170
     0
171
     3
172
     1
173
     0
174
     0
175
     0
176
     0
177
     0
178
     0
  0
DIMSTYLE
  2
ANNOTATIVE
 70
     0
  3

  4

  5

  6

  7

 40
0.0
 41
2.5
 42
0.625
 43
3.75
 44
1.25
 45
0.0
 46
0.0
 47
0.0
 48
0.0
140
2.5
141
2.5
142
0.0
143
0.03937007874016
144
1.0
145
0.0
146
1.0
147
0.625
 71
     0
 72
     0
 73
     0
 74
     0
 75
     0
 76
     0
 77
     1
 78
     8
170
     0
171
     3
172
     1
173
     0
174
     0
175
     0
176
     0
177
     0
178
     0
  0
ENDTAB
  0
ENDSEC
  0
SECTION
  2
BLOCKS
  0
BLOCK
  8
0
  2
$MODEL_SPACE
 70
     0
 10
0.0
 20
0.0
 30
0.0
  3
$MODEL_SPACE
  1

  0
ENDBLK
  5
21
  8
0
  0
BLOCK
 67
     1
  8
0
  2
$PAPER_SPACE
 70
     0
 10
0.0
 20
0.0
 30
0.0
  3
$PAPER_SPACE
  1

  0
ENDBLK
  5
D5
 67
     1
  8
0
  0
BLOCK
  8
0
  2
A
 70
     0
 10
0.0
 20
0.0
 30
0.0
  3
A
  1

  0
LINE
  5
1CC
  8
0
 10
34.810993718849211
 20
766.31948000215925
 30
0.0
 11
308.79431911048232
 21
1470.5301459298021
 31
0.0
  0
LINE
  5
1CD
  8
0
 10
308.79431911048232
 20
1470.5301459298021
 30
0.0
 11
578.86360395520023
 21
684.16156728581518
 31
0.0
  0
LINE
  5
1CE
  8
0
 10
85.693608071893308
 20
1055.8283073802349
 30
0.0
 11
555.37931705213475
 21
1044.091464024486
 31
0.0
  0
ENDBLK
  5
1CB
  8
0
  0
BLOCK
  8
0
  2
B
 70
     0
 10
0.0
 20
0.0
 30
0.0
  3
B
  1

  0
LINE
  5
1D3
  8
0
 10
1305.0455840219211
 20
1488.081073811094
 30
0.0
 11
1495.238257032064
 21
477.51305915262668
 31
0.0
  0
LINE
  5
1D4
  8
0
 10
1495.238257032064
 20
477.51305915262668
 30
0.0
 11
1985.7351517324739
 21
697.63678434138365
 31
0.0
  0
LINE
  5
1D5
  8
0
 10
1985.7351517324739
 20
697.63678434138365
 30
0.0
 11
1835.5830372522089
 21
1067.8448678230659
 31
0.0
  0
LINE
  5
1D6
  8
0
 10
1835.5830372522089
 20
1067.8448678230659
 30
0.0
 11
1339.894622299518
 21
977.33987542157399
 31
0.0
  0
LINE
  5
1D7
  8
0
 10
1339.894622299518
 20
977.33987542157399
 30
0.0
 11
1665.9655644986869
 21
1141.5089042788759
 31
0.0
  0
LINE
  5
1D8
  8
0
 10
1665.9655644986869
 20
1141.5089042788759
 30
0.0
 11
1615.2434193884251
 21
1421.5619600185839
 31
0.0
  0
LINE
  5
1D9
  8
0
 10
1615.2434193884251
 20
1421.5619600185839
 30
0.0
 11
1161.159432867227
 21
1491.575226260037
 31
0.0
  0
ENDBLK
  5
1D2
  8
0
  0
BLOCK
  8
0
  2
C
 70
     0
 10
0.0
 20
0.0
 30
0.0
  3
C
  1

  0
LINE
  5
1DE
  8
0
 10
3564.728385238946
 20
639.30926727966835
 30
0.0
 11
2928.4756822245522
 21
768.97215621109615
 31
0.0
  0
LINE
  5
1DF
  8
0
 10
2928.4756822245522
 20
768.97215621109615
 30
0.0
 11
2526.9569905943658
 21
-21.354039099544941
 31
0.0
  0
LINE
  5
1E0
  8
0
 10
2526.9569905943658
 20
-21.354039099544941
 30
0.0
 11
2594.9063071920732
 21
-842.55234950441616
 31
0.0
  0
LINE
  5
1E1
  8
0
 10
2594.9063071920732
 20
-842.55234950441616
 30
0.0
 11
3391.7664824963849
 21
-793.15696258581693
 31
0.0
  0
ENDBLK
  5
1DD
  8
0
  0
BLOCK
  8
0
  2
D
 70
     0
 10
0.0
 20
0.0
 30
0.0
  3
D
  1

  0
LINE
  5
1E6
  8
0
 10
3801.410020081812
 20
1416.401282171676
 30
0.0
 11
4178.2198726174947
 21
292.656226313753
 31
0.0
  0
LINE
  5
1E7
  8
0
 10
4178.2198726174947
 20
292.656226313753
 30
0.0
 11
4653.8650960717114
 21
693.99374560400327
 31
0.0
  0
LINE
  5
1E8
  8
0
 10
4653.8650960717114
 20
693.99374560400327
 30
0.0
 11
4542.6753019707958
 21
1311.436084393021
 31
0.0
  0
LINE
  5
1E9
  8
0
 10
4542.6753019707958
 20
1311.436084393021
 30
0.0
 11
4239.9919812591443
 21
1521.366479950331
 31
0.0
  0
LINE
  5
1EA
  8
0
 10
4239.9919812591443
 20
1521.366479950331
 30
0.0
 11
3801.410020081812
 21
1416.401282171676
 31
0.0
  0
ENDBLK
  5
1E5
  8
0
  0
ENDSEC
  0
SECTION
  2
ENTITIES
  0
INSERT
  5
1CF
  8
0
  2
A
 10
0.0
 20
0.0
 30
0.0
  0
INSERT
  5
1DA
  8
0
  2
B
 10
0.0
 20
0.0
 30
0.0
  0
INSERT
  5
1E2
  8
0
  2
C
 10
0.0
 20
0.0
 30
0.0
  0
INSERT
  5
1EB
  8
0
  2
D
 10
0.0
 20
0.0
 30
0.0
  0
ENDSEC
  0
EOF
