 0
SECTION
 2
HEADER
 9
$ACADVER
 1
AC1009
 0
ENDSEC
 0
SECTION
 2
ENTITIES
 0
POLYLINE
 8
0
 66
1
 10
0.0
 20
0.0
 30
0.0
 70
1
 0
VERTEX
 8
0
 10
8.8676051684046122
 20
10.884844069326
 30
0.0
 0
VERTEX
 8
0
 10
15.66294859432524
 20
15.225911836162091
 30
0.0
 0
VERTEX
 8
0
 10
10.381982096081719
 20
21.64452054008791
 30
0.0
 0
VERTEX
 8
0
 10
4.6370827579007763
 20
17.627474202683349
 30
0.0
 0
SEQEND
 8
0
 0
POLYLINE
 8
0
 66
1
 10
0.0
 20
0.0
 30
0.0
 70
1
 0
VERTEX
 8
0
 10
15.984372847361829
 20
14.83792953902625
 30
0.0
 0
VERTEX
 8
0
 10
9.1220967074092183
 20
10.45410316100315
 30
0.0
 0
VERTEX
 8
0
 10
13.029622786573761
 20
3.3859466859172671
 30
0.0
 0
VERTEX
 8
0
 10
21.309459449708431
 20
8.4665864269112827
 30
0.0
 0
SEQEND
 8
0
 0
ENDSEC
 0
EOF
